Woylier package:
…
ggplot(mat_all, aes(x=x, y=y, colour=type)) +
  geom_point() +
  xlab("") + ylab("") +
  scale_colour_manual("", values=c("black", "orange")) +
  geom_text(data=mat_all_label, aes(x=x, y=y, label=label, colour=type)) +
  theme(aspect.ratio=1) +
  theme_bw()

# A tibble: 500 × 6
       V1      V2      V3     V4      V5      V6
    <dbl>   <dbl>   <dbl>  <dbl>   <dbl>   <dbl>
 1  1.70   1.08   -0.118  -0.559 -0.519  -0.496 
 2 -1.25  -0.761  -0.183   0.395 -0.323  -0.317 
 3  0.219  0.323  -0.395  -0.252 -0.0826 -0.0824
 4 -1.40  -0.696   0.679  -1.30   1.25    0.949 
 5  0.117 -2.00    1.08    1.55  -0.709  -0.652 
 6 -1.20  -1.25   -0.0382  0.443  0.422   0.409 
 7  0.324  1.71    0.635   0.514 -0.824  -0.734 
 8  1.76  -0.152  -0.611  -2.17   0.519   0.496 
 9  0.267 -0.253  -1.07    1.85  -0.490  -0.470 
10  1.05   0.0413  0.801   0.217 -1.05   -0.867 
# … with 490 more rows
…
